LCMS with xcms
…
Ok, working with all files together is not the best  for visualization and handling. To facilitate the cutting by file, xcms is provided with a split() function which can be combined with a fromFile function to create a list with the content separate by file

by_file_mz <- split(mz, fromFile(raw_data))
by_file_rt <- split(rt, fromFile(raw_data))
by_file_I <- split(I, fromFile(raw_data))
length(by_file_mz)

## [1] 8

As we discussed, metabolites are visible as peaks ia 2d mz/rt plane 

mytibble <- tibble(rt = by_file_rt[[2]], mz = by_file_mz[[2]], I = by_file_I[[2]])
mytibble

## # A tibble: 639 x 3
##       rt mz           I           
##    <dbl> <named list> <named list>
##  1 2501. <dbl [424]>  <dbl [424]> 
##  2 2503. <dbl [423]>  <dbl [423]> 
##  3 2505. <dbl [433]>  <dbl [433]> 
##  4 2506. <dbl [427]>  <dbl [427]> 
##  5 2508. <dbl [423]>  <dbl [423]> 
##  6 2509. <dbl [427]>  <dbl [427]> 
##  7 2511. <dbl [427]>  <dbl [427]> 
##  8 2512. <dbl [431]>  <dbl [431]> 
##  9 2514. <dbl [425]>  <dbl [425]> 
## 10 2515. <dbl [427]>  <dbl [427]> 
## #  with 629 more rows
…
